ContamW 3.4.0.0 0

! rows cols ud uf    T   uT     N     wH  u  Ao    a
   120  135  0  1 293.150 2    0.00 10.00 0 0.600 0.280
!  scale     us  orgRow  orgCol  invYaxis showGeom
  1.000e+00   0      56       1     0        0
! Ta       Pb      Ws    Wd    rh  day u..
293.150 101325.0  0.000   0.0 0.000 1 2 0 0 1 ! steady simulation
293.150 101325.0  1.000 270.0 0.000 1 2 0 0 1 ! wind pressure test
null ! no weather file
null ! no contaminant file
null ! no continuous values file
null ! no discrete values file
null ! no WPC file
null ! no EWC file
WPC description
!  Xref    Yref    Zref   angle u
   0.000   0.000   0.000   0.00 0
! epsP epsS  tShift  dStart dEnd wp mf wpctrig
  0.01 0.01 00:00:00   1/1   1/1  0  0  0
! latd  longtd   tznr  altd  Tgrnd u..
 40.00  -90.00  -6.00     0 283.15 2 0
!sim_af afcalc afmaxi afrcnvg afacnvg afrelax uac Pbldg uPb
     0      1     30   1e-05   1e-06    0.75   0 50.00   0
!   slae rs aflmaxi aflcnvg aflinit Tadj
      0   1    100   1e-06      1    0
!sim_mf slae rs maxi   relcnvg   abscnvg relax gamma ucc
    2             30  1.00e-04  1.00e-15 1.250         0 ! (cyclic)
          0   1  100  1.00e-06  1.00e-15 1.100 1.000   0 ! (non-trace)
          0   1  100  1.00e-06  1.00e-15 1.100 1.000   0 ! (trace)
          0   1  100  1.00e-06  1.00e-15 1.100         0 ! (cvode)
!mf_solver sim_1dz sim_1dd   celldx  sim_vjt udx
     0        1       0     1.00e-01    0     0
!cvode    rcnvg     acnvg    dtmax
   0     1.00e-06  1.00e-13   0.00
!tsdens relax tsmaxi cnvgSS densZP stackD dodMdt
   0    0.75    20     1      0      0      0
!date_st time_st  date_0 time_0   date_1 time_1    t_step   t_list   t_scrn
  Jan01 00:00:00  Jan01 00:00:00  Jan01 24:00:00  00:00:10 00:01:00 01:00:00
!restart  date  time
    0    Jan01 00:00:00
!list doDlg pfsave zfsave zcsave
   1     1      1      1      1
!vol ach -bw cbw exp -bw age -bw
  0   0   0   0   0   0   0   0
!rzf rzm rz1 csm srf log
  0   0   0   1   1   1
!bcx dcx pfq zfq zcq
  0   0   0   0   0
!dens   grav
 1.2041 9.8055
! 0  1  2  3  4  5  6  7  8  9  10 11 12 13 14 15 <- extra[]
  0  0  0  0  0  0  0  0  0  0  0  0  0  0  0  0
0 ! rvals:
!valZ valD valC
   0    0    0
!cfd   cfdcnvg  var zref maxi dtcmo solv smooth   cnvgUVW     cnvgT
   0  1.00e-02    0    0 1000     1    1      1  1.00e-03  1.00e-03
-999
18 ! contaminants:
   1 2 3 4 5 6 7 8 9 10 11 12 13 14 15 16 17 18
18 ! species:
! # s t   molwt    mdiam       edens       decay         Dm         CCdef        Cp          Kuv     u[5]      name
  1 1 0   0.0000  3.0000e-07  1.0000e+03  0.0000e+00  2.0000e-05  0.0000e+00  1.0000e+03  0.0000e+00 24 6 2 0 0 B00

  2 1 0   0.0000  6.0000e-07  1.0000e+03  0.0000e+00  2.0000e-05  0.0000e+00  1.0000e+03  0.0000e+00 24 6 2 0 0 B001

  3 1 0   0.0000  1.2000e-06  1.0000e+03  0.0000e+00  2.0000e-05  0.0000e+00  1.0000e+03  0.0000e+00 24 6 2 0 0 B01

  4 1 0   0.0000  2.4000e-06  1.0000e+03  0.0000e+00  2.0000e-05  0.0000e+00  1.0000e+03  0.0000e+00 24 6 2 0 0 B02

  5 1 0   0.0000  4.8000e-06  1.0000e+03  0.0000e+00  2.0000e-05  0.0000e+00  1.0000e+03  0.0000e+00 24 6 2 0 0 B03

  6 1 0   0.0000  8.0000e-06  1.0000e+03  0.0000e+00  2.0000e-05  0.0000e+00  1.0000e+03  0.0000e+00 24 6 2 0 0 B04

  7 1 0   0.0000  1.1200e-05  1.0000e+03  0.0000e+00  2.0000e-05  0.0000e+00  1.0000e+03  0.0000e+00 24 6 2 0 0 B05

  8 1 0   0.0000  1.4400e-05  1.0000e+03  0.0000e+00  2.0000e-05  0.0000e+00  1.0000e+03  0.0000e+00 24 6 2 0 0 B06

  9 1 0   0.0000  1.8000e-05  1.0000e+03  0.0000e+00  2.0000e-05  0.0000e+00  1.0000e+03  0.0000e+00 24 6 2 0 0 B07

 10 1 0   0.0000  2.5000e-05  1.0000e+03  0.0000e+00  2.0000e-05  0.0000e+00  1.0000e+03  0.0000e+00 24 6 2 0 0 B08

 11 1 0   0.0000  3.5000e-05  1.0000e+03  0.0000e+00  2.0000e-05  0.0000e+00  1.0000e+03  0.0000e+00 24 6 2 0 0 B09

 12 1 0   0.0000  4.5000e-05  1.0000e+03  0.0000e+00  2.0000e-05  0.0000e+00  1.0000e+03  0.0000e+00 24 6 2 0 0 B10

 13 1 0   0.0000  5.5000e-05  1.0000e+03  0.0000e+00  2.0000e-05  0.0000e+00  1.0000e+03  0.0000e+00 24 6 2 0 0 B11

 14 1 0   0.0000  7.0000e-05  1.0000e+03  0.0000e+00  2.0000e-05  0.0000e+00  1.0000e+03  0.0000e+00 24 6 2 0 0 B12

 15 1 0   0.0000  9.0000e-05  1.0000e+03  0.0000e+00  2.0000e-05  0.0000e+00  1.0000e+03  0.0000e+00 24 6 2 0 0 B13

 16 1 0   0.0000  1.5000e-04  1.0000e+03  0.0000e+00  2.0000e-05  0.0000e+00  1.0000e+03  0.0000e+00 24 6 2 0 0 B14

 17 1 0   0.0000  3.0000e-04  1.0000e+03  0.0000e+00  2.0000e-05  0.0000e+00  1.0000e+03  0.0000e+00 24 6 2 0 0 B15

 18 1 0  44.0100  0.0000e+00  0.0000e+00  0.0000e+00  2.0000e-05  6.0790e-04  1.0000e+03  0.0000e+00 1 0 0 0 0 CO2

-999
2 ! levels plus icon data:
! #  refHt   delHt  ni  u  name
  1   0.000   3.000 69 0 0 <1>
!icn col row  #
 130  40   5   1
  14  41   6   0
  19  47   6   0
  15  53   6   0
   5  46   7   6
   5  52   7   7
  29  47   9  21
  14   3  10   0
  21  41  10   0
  23  43  10  22
  21  47  10   0
  23  51  10  23
  21  53  10   0
  19  62  10   0
  15 124  10   0
   5 122  12   8
   5  59  13   9
 133  31  20   1
  23 124  28  24
  23   3  29  25
  14  41  30   0
  30  43  30  26
  23  55  30  27
  15  59  30   0
   5  58  31  10
 133  49  32   2
 133  42  35   3
 133  44  35   4
 133  42  37   5
 133  44  37   6
 133  46  37   7
 133  48  37   8
 133  50  37   9
 133  42  39  10
 133  44  39  11
 133  46  39  12
 133  48  39  13
 133  50  39  14
  29   3  41  28
 133  42  41  15
 133  44  41  16
 133  46  41  17
 133  48  41  18
 133  50  41  19
  17  41  45   0
  16  59  45   0
 128  80  47  29
 128  26  48  30
  18   3  51   0
  23  39  51  31
  21  62  51   0
  23  85  51  32
  20 124  51   0
   5 121  53  11
 128  71  55  33
  18   3  60   0
  23  40  60  34
  19  62  60   0
  23  85  60  35
  20 124  60   0
   5 122  62  12
   5  59  63  13
 128  79  65  36
 128  48  66  37
  23   3  80  38
  23 124  86  39
  17   3 105   0
  21  62 105   0
  16 124 105   0
  2   3.000   1.000 37 0 0 <2>
!icn col row  #
  14   3  10   0
  19  62  10   0
  15 124  10   0
   5 122  12   1
   5  59  13   2
  23   3  29   1
  23  40  31   2
  23  93  32   3
  23 124  34   4
  27  62  35   5
 129  80  44   6
 129  29  48   7
  18   3  51   0
  27  39  51   8
  21  62  51   0
  27  85  51   9
  20 124  51   0
   5 121  53   3
 129  17  55  10
  23  65  56  11
  18   3  60   0
  27  40  60  12
  19  62  60   0
  27  85  60  13
  20 124  60   0
   5 122  62   4
   5  59  63   5
 129  79  68  14
 129  48  69  15
  23   3  80  16
  27  62  83  17
  23  92  85  18
  23  33  86  19
  23 124  86  20
  17   3 105   0
  21  62 105   0
  16 124 105   0
-999
6 ! day-schedules:
! # npts shap utyp ucnv name
  1    2    0    1    0 OA_10percent

 00:00:00 0.1
 24:00:00 0.1
  2    2    0    1    0 OA_Day_Code

 00:00:00 0.45
 24:00:00 0.45
  3    2    0    1    0 OA_Day_Full

 00:00:00 0.99
 24:00:00 0.99
  4    2    0    1    0 OA_Day_Low

 00:00:00 0.225
 24:00:00 0.225
  5    2    0    1    0 OA_Day_Med

 00:00:00 0.2
 24:00:00 0.2
  6    4    0    1    0 PeopleDay

 00:00:00 1
 00:01:00 0
 03:00:00 0
 24:00:00 0
-999
5 ! week-schedules:
! # utyp ucnv name
  1    1    0 OA_Week_Code

 1 1 1 1 1 1 1 1 1 1 1 1
  2    1    0 OA_Week_Full

 3 3 3 3 3 3 3 3 3 3 3 3
  3    1    0 OA_Week_Low

 4 4 4 4 4 4 4 4 4 4 4 4
  4    1    0 OA_Week_Med

 5 5 5 5 5 5 5 5 5 5 5 5
  5    1    0 PeopleWeek

 6 6 6 6 6 6 6 6 6 6 6 6
-999
0 ! wind pressure profiles:
-999
3 ! kinetic reactions:
1 17 DepRatesHigh

 B001 B001 -6.16667e-05
 B00 B00 -0.000116667
 B01 B01 -0.000252778
 B02 B02 -0.000590278
 B03 B03 -0.00127778
 B04 B04 -0.0025
 B05 B05 -0.0045
 B06 B06 -0.00722222
 B07 B07 -0.01
 B08 B08 -0.02
 B09 B09 -0.0377778
 B10 B10 -0.0622222
 B11 B11 -0.0944444
 B12 B12 -0.15
 B13 B13 -0.247222
 B14 B14 -0.677778
 B15 B15 -2.66667
2 17 DepRatesLow

 B001 B001 -8.33333e-06
 B00 B00 -1.66667e-05
 B01 B01 -3.88889e-05
 B02 B02 -0.000118056
 B03 B03 -0.000319444
 B04 B04 -0.000625
 B05 B05 -0.001125
 B06 B06 -0.00180556
 B07 B07 -0.0025
 B08 B08 -0.005
 B09 B09 -0.00944444
 B10 B10 -0.0155556
 B11 B11 -0.0236111
 B12 B12 -0.0375
 B13 B13 -0.0618056
 B14 B14 -0.169444
 B15 B15 -0.666667
3 17 DepRatesMed

 B001 B001 -3.33333e-05
 B00 B00 -1.66667e-05
 B01 B01 -7.77778e-05
 B02 B02 -0.0002361
 B03 B03 -0.0006389
 B04 B04 -0.00125
 B05 B05 -0.00225
 B06 B06 -0.003611
 B07 B07 -0.005
 B08 B08 -0.01
 B09 B09 -0.01889
 B10 B10 -0.03111
 B11 B11 -0.04722
 B12 B12 -0.075
 B13 B13 -0.1236
 B14 B14 -0.3389
 B15 B15 -1.3333
-999
8 ! filter elements:
1 cef 1 0.1 100 0 0 M14

 17
  B15 0.999
  B14 0.999
  B13 0.999
  B12 0.999
  B11 0.999
  B10 0.998
  B09 0.998
  B08 0.998
  B07 0.998
  B06 0.998
  B05 0.995
  B04 0.995
  B03 0.99
  B02 0.9785
  B01 0.9172
  B001 0.8141
  B00 0.6692
2 cef 1 0.1 100 0 0 M5

 17
  B15 0.2765
  B14 0.2765
  B13 0.2765
  B12 0.2765
  B11 0.2765
  B10 0.2765
  B09 0.2765
  B08 0.2765
  B07 0.2765
  B06 0.2765
  B05 0.2765
  B04 0.2121
  B03 0.1235
  B02 0.0445
  B01 0.0201
  B001 0.0118
  B00 0.0148
3 cef 1 0.1 100 0 0 M6

 17
  B15 0.5563
  B14 0.5563
  B13 0.5563
  B12 0.5563
  B11 0.5563
  B10 0.5563
  B09 0.5563
  B08 0.5563
  B07 0.5563
  B06 0.5563
  B05 0.5563
  B04 0.5047
  B03 0.3968
  B02 0.2631
  B01 0.1648
  B001 0.0858
  B00 0.0501
4 cef 1 0.1 100 0 0 M7

 17
  B15 0.67
  B14 0.67
  B13 0.67
  B12 0.67
  B11 0.67
  B10 0.6696
  B09 0.6696
  B08 0.6696
  B07 0.6696
  B06 0.6696
  B05 0.6696
  B04 0.6454
  B03 0.5978
  B02 0.4955
  B01 0.3738
  B001 0.2426
  B00 0.1145
5 cef 1 0.1 100 0 0 M8

 17
  B15 0.8713
  B14 0.8713
  B13 0.8713
  B12 0.8713
  B11 0.8713
  B10 0.8713
  B09 0.8713
  B08 0.8713
  B07 0.87
  B06 0.87
  B05 0.87
  B04 0.8504
  B03 0.7875
  B02 0.6779
  B01 0.5217
  B001 0.3092
  B00 0.2174
6 cef 1 0.1 100 0 0 MERV10

 17
  B15 0.98
  B14 0.98
  B13 0.98
  B12 0.97
  B11 0.97
  B10 0.96
  B09 0.96
  B08 0.9564
  B07 0.9564
  B06 0.9564
  B05 0.9564
  B04 0.9202
  B03 0.8427
  B02 0.7163
  B01 0.5279
  B001 0.3706
  B00 0.2492
7 cef 1 0.1 100 0 0 MERV13
Camfil_M13
 17
  B15 0.998
  B14 0.998
  B13 0.998
  B12 0.998
  B11 0.998
  B10 0.998
  B09 0.998
  B08 0.998
  B07 0.998
  B06 0.998
  B05 0.995
  B04 0.99
  B03 0.953
  B02 0.754
  B01 0.592
  B001 0.528
  B00 0.498
8 cef 1 0.1 100 0 0 Room_AC
HEPA filter
 17
  B15 0.9997
  B14 0.9997
  B13 0.9997
  B12 0.9997
  B11 0.9997
  B10 0.9997
  B09 0.9997
  B08 0.9997
  B07 0.9997
  B06 0.9997
  B05 0.9997
  B04 0.9997
  B03 0.9997
  B02 0.9997
  B01 0.9997
  B001 0.9997
  B00 0.9997
-999
2 ! filters:
  1   7   1
   0 0
  2   7   1
   0 0
-999
18 ! source/sink elements:
1 B00 ccf SrceB00

 2.35619e-19 0 37 0
2 B001 ccf SrceB001

 1.88496e-18 0 37 0
3 B01 ccf SrceB01

 1.50796e-17 0 37 0
4 B02 ccf SrceB02

 1.20637e-16 0 37 0
5 B03 ccf SrceB03

 9.65097e-16 0 37 0
6 B04 ccf SrceB04

 4.46804e-15 0 37 0
7 B05 ccf SrceB05

 1.22603e-14 0 37 0
8 B06 ccf SrceB06

 2.60576e-14 0 37 0
9 B07 ccf SrceB07

 5.08938e-14 0 37 0
10 B08 ccf SrceB08

 1.36354e-13 0 37 0
11 B09 ccf SrceB09

 3.74155e-13 0 37 0
12 B10 ccf SrceB10

 7.95216e-13 0 37 31
13 B11 ccf SrceB11

 1.4519e-12 0 37 0
14 B12 ccf SrceB12

 2.99324e-12 0 37 0
15 B13 ccf SrceB13

 6.36173e-12 0 37 0
16 B14 ccf SrceB14

 2.94524e-11 0 37 0
17 B15 ccf SrceB15

 2.35619e-10 0 37 0
18 CO2 ccf SrcePerson

 7.62474e-06 0 21 0
-999
9 ! flow elements:
1 27 dor_door BigOpen

 0.259584 4.41235 0.5 0.01 1 4 0.78 0 0 0
2 23 plr_orfc Duct

 0.00084759 0.0842712 0.5 0.0993146 0.3556 0.6 30 3 3
3 29 fan_cvf Exhst

 0.141584 1
4 23 plr_leak1 ExtWallLkge

 2.01574e-06 0.00840997 0.65 0.6 10 0.014 0 0 2 2 2 0
5 30 fan_cvf Mixer

 0.100006 1
6 23 plr_orfc ReturnGrill

 0.00180145 0.139306 0.5 0.164173 0.4572 0.6 30 3 3
7 29 fan_cvf RoomAirCleaner

 0.141584 1
8 29 fan_cvf SupplyFan

 0.42664 1
9 29 fan_cvf Vent

 0.0198218 1
-999
0 ! duct elements:
-999
0 ! control super elements:
-999
0 ! control nodes:
-999
1 ! simple AHS:
! # zr# zs# pr# ps# px# name
  1  14  15  40  41  42 -1 AHU

-999
15 ! zones:
! Z#  f  s#  c#  k#  l#  relHt    Vol  T0  P0  name  clr u[4]  axs cdvf <cdvf name> cfd <cfd name> <1D data:>
   1  3   0   0   1   2   0.000 278.709 293.15 0 AboveRoom2 -1 0 2 0 1 0 0 0
   2  3   0   0   1   2   0.000 92.903 294.15 0 AboveRoom1 -1 0 2 0 1 0 0 0
   3  3   0   0   1   2   0.000 23.2258 293.15 0 AboveHall -1 0 2 0 1 0 0 0
   4  3   0   0   1   2   0.000 278.709 295.15 0 AboveRoom3 -1 0 2 0 1 0 0 0
   5  3   0   0   1   2   0.000 278.709 293.15 0 AboveRoom4 -1 0 2 0 1 0 0 0
   6  3   0   0   0   1   0.000     1 293.15 0 RAsupply -1 0 2 0 0 0 0 0
   7  3   0   0   0   1   0.000     1 293.15 0 RAreturn -1 0 2 0 0 0 0 0
   8  3   0   0   3   1   0.000 836.127 293.15 0 Room2 -1 0 2 0 1 0 0 0
   9  3   0   0   3   1   0.000 278.709 293.15 0 Room1 -1 0 2 0 1 0 0 0
  10  3   0   0   3   1   0.000 0.999999 293.15 0 Infector -1 0 2 0 0 0 0 0
  11  3   0   0   3   1   0.000 69.6773 293.15 0 Hall -1 0 2 0 1 0 0 0
  12  3   0   0   3   1   0.000 836.127 293.15 0 Room3 -1 0 2 0 1 0 0 0
  13  3   0   0   3   1   0.000 836.127 293.15 0 Room4 -1 0 2 0 1 0 0 0
  14 10   0   0   0   1   0.000     0 293.15 0 AHU(Ret) -1 0 2 0 0 0 0 0
  15 10   0   0   0   1   0.000     0 293.15 0 AHU(Sup) -1 0 2 0 0 0 0 0
-999
270 ! initial zone concentrations:
! Z#        B00       B001        B01        B02        B03        B04        B05        B06        B07        B08        B09        B10        B11        B12        B13        B14        B15        CO2
   1  0.000e+00  0.000e+00  0.000e+00  0.000e+00  0.000e+00  0.000e+00  0.000e+00  0.000e+00  0.000e+00  0.000e+00  0.000e+00  0.000e+00  0.000e+00  0.000e+00  0.000e+00  0.000e+00  0.000e+00  6.079e-04
   2  0.000e+00  0.000e+00  0.000e+00  0.000e+00  0.000e+00  0.000e+00  0.000e+00  0.000e+00  0.000e+00  0.000e+00  0.000e+00  0.000e+00  0.000e+00  0.000e+00  0.000e+00  0.000e+00  0.000e+00  6.079e-04
   3  0.000e+00  0.000e+00  0.000e+00  0.000e+00  0.000e+00  0.000e+00  0.000e+00  0.000e+00  0.000e+00  0.000e+00  0.000e+00  0.000e+00  0.000e+00  0.000e+00  0.000e+00  0.000e+00  0.000e+00  6.079e-04
   4  0.000e+00  0.000e+00  0.000e+00  0.000e+00  0.000e+00  0.000e+00  0.000e+00  0.000e+00  0.000e+00  0.000e+00  0.000e+00  0.000e+00  0.000e+00  0.000e+00  0.000e+00  0.000e+00  0.000e+00  6.079e-04
   5  0.000e+00  0.000e+00  0.000e+00  0.000e+00  0.000e+00  0.000e+00  0.000e+00  0.000e+00  0.000e+00  0.000e+00  0.000e+00  0.000e+00  0.000e+00  0.000e+00  0.000e+00  0.000e+00  0.000e+00  6.079e-04
   6  0.000e+00  0.000e+00  0.000e+00  0.000e+00  0.000e+00  0.000e+00  0.000e+00  0.000e+00  0.000e+00  0.000e+00  0.000e+00  0.000e+00  0.000e+00  0.000e+00  0.000e+00  0.000e+00  0.000e+00  6.079e-04
   7  0.000e+00  0.000e+00  0.000e+00  0.000e+00  0.000e+00  0.000e+00  0.000e+00  0.000e+00  0.000e+00  0.000e+00  0.000e+00  0.000e+00  0.000e+00  0.000e+00  0.000e+00  0.000e+00  0.000e+00  6.079e-04
   8  0.000e+00  0.000e+00  0.000e+00  0.000e+00  0.000e+00  0.000e+00  0.000e+00  0.000e+00  0.000e+00  0.000e+00  0.000e+00  0.000e+00  0.000e+00  0.000e+00  0.000e+00  0.000e+00  0.000e+00  6.079e-04
   9  0.000e+00  0.000e+00  0.000e+00  0.000e+00  0.000e+00  0.000e+00  0.000e+00  0.000e+00  0.000e+00  0.000e+00  0.000e+00  0.000e+00  0.000e+00  0.000e+00  0.000e+00  0.000e+00  0.000e+00  6.079e-04
  10  0.000e+00  0.000e+00  0.000e+00  0.000e+00  0.000e+00  0.000e+00  0.000e+00  0.000e+00  0.000e+00  0.000e+00  0.000e+00  0.000e+00  0.000e+00  0.000e+00  0.000e+00  0.000e+00  0.000e+00  6.079e-04
  11  0.000e+00  0.000e+00  0.000e+00  0.000e+00  0.000e+00  0.000e+00  0.000e+00  0.000e+00  0.000e+00  0.000e+00  0.000e+00  0.000e+00  0.000e+00  0.000e+00  0.000e+00  0.000e+00  0.000e+00  6.079e-04
  12  0.000e+00  0.000e+00  0.000e+00  0.000e+00  0.000e+00  0.000e+00  0.000e+00  0.000e+00  0.000e+00  0.000e+00  0.000e+00  0.000e+00  0.000e+00  0.000e+00  0.000e+00  0.000e+00  0.000e+00  6.079e-04
  13  0.000e+00  0.000e+00  0.000e+00  0.000e+00  0.000e+00  0.000e+00  0.000e+00  0.000e+00  0.000e+00  0.000e+00  0.000e+00  0.000e+00  0.000e+00  0.000e+00  0.000e+00  0.000e+00  0.000e+00  6.079e-04
  14  0.000e+00  0.000e+00  0.000e+00  0.000e+00  0.000e+00  0.000e+00  0.000e+00  0.000e+00  0.000e+00  0.000e+00  0.000e+00  0.000e+00  0.000e+00  0.000e+00  0.000e+00  0.000e+00  0.000e+00  6.079e-04
  15  0.000e+00  0.000e+00  0.000e+00  0.000e+00  0.000e+00  0.000e+00  0.000e+00  0.000e+00  0.000e+00  0.000e+00  0.000e+00  0.000e+00  0.000e+00  0.000e+00  0.000e+00  0.000e+00  0.000e+00  6.079e-04
-999
42 ! flow paths:
! P#    f  n#  m#  e#  f#  w#  a#  s#  c#  l#    X       Y      relHt  mult wPset wPmod wazm Fahs Xmax Xmin icn dir u[4] cdvf <cdvf name> cfd <cfd data[4]>
   1    0  -1   2   4   0   0   0   0   0   2   0.000   0.000   1.500 20 0 0 -1 0 0 0  23  2 -1 0 0 0 0 0 0
   2    0   9   2   6   0   0   0   0   0   2   0.000   0.000   0.000 1 0 0 -1 0 0 0  23  3 -1 0 0 0 1 0 0
   3    0   8   1   6   0   0   0   0   0   2   0.000   0.000   0.000 3 0 0 -1 0 0 0  23  3 -1 0 0 0 1 0 0
   4    0  -1   1   4   0   0   0   0   0   2   0.000   0.000   0.500 1 0 0 -1 0 0 0  23  5 -1 0 0 0 1 0 0
   5    0   2   1   1   0   0   0   0   0   2   0.000   0.000   0.000 1 0 0 -1 0 0 0  27  2 -1 0 0 0 1 0 0
   6    8   1  14   0   0   0   1   0   0   2   0.000   0.000   0.000 1 0 0 0 1.70482 0 0 129  5 -1 0 0 0 1 0 0
   7    8   2  14   0   0   0   1   0   0   2   0.000   0.000   0.000 1 0 0 0 0.568272 0 0 129  5 -1 0 0 0 1 0 0
   8    0   3   2   1   0   0   0   0   0   2   0.000   0.000   0.000 1 0 0 -1 0 0 0  27  1 -1 0 0 0 1 0 0
   9    0   3   1   1   0   0   0   0   0   2   0.000   0.000   0.000 1 0 0 -1 0 0 0  27  1 -1 0 0 0 1 0 0
  10    8   3  14   0   0   0   1   0   0   2   0.000   0.000   0.000 1 0 0 0 0.142068 0 0 129  5 -1 0 0 0 1 0 0
  11    0  11   3   6   0   0   0   0   0   2   0.000   0.000   0.000 1 0 0 -1 0 0 0  23  3 -1 0 0 0 1 0 0
  12    0   5   3   1   0   0   0   0   0   2   0.000   0.000   0.000 1 0 0 -1 0 0 0  27  1 -1 0 0 0 1 0 0
  13    0   4   3   1   0   0   0   0   0   2   0.000   0.000   0.000 1 0 0 -1 0 0 0  27  1 -1 0 0 0 1 0 0
  14    8   4  14   0   0   0   1   0   0   2   0.000   0.000   0.000 1 0 0 0 1.70482 0 0 129  5 -1 0 0 0 1 0 0
  15    8   5  14   0   0   0   1   0   0   2   0.000   0.000   0.000 1 0 0 0 1.70482 0 0 129  5 -1 0 0 0 1 0 0
  16    0  -1   5   4   0   0   0   0   0   2   0.000   0.000   0.500 1 0 0 -1 0 0 0  23  2 -1 0 0 0 1 0 0
  17    0   5   4   1   0   0   0   0   0   2   0.000   0.000   0.000 1 0 0 -1 0 0 0  27  2 -1 0 0 0 1 0 0
  18    0  12   4   6   0   0   0   0   0   2   0.000   0.000   0.000 3 0 0 -1 0 0 0  23  3 -1 0 0 0 1 0 0
  19    0  13   5   6   0   0   0   0   0   2   0.000   0.000   0.000 3 0 0 -1 0 0 0  23  3 -1 0 0 0 1 0 0
  20    0  -1   4   4   0   0   0   0   0   2   0.000   0.000   0.500 1 0 0 -1 0 0 0  23  5 -1 0 0 0 1 0 0
  21    0   7   6   7   0   0   0   0   0   1   0.000   0.000   1.500 0 0 0 -1 0 0 0  29  5 -1 0 0 0 1 0 0
  22    0   9   6   2   0   0   0   0   0   1   0.000   0.000   1.500 1 0 0 -1 0 0 0  23  1 -1 0 0 0 1 0 0
  23    0   9   7   2   0   0   0   0   0   1   0.000   0.000   1.500 1 0 0 -1 0 0 0  23  1 -1 0 0 0 1 0 0
  24    0  -1   8   4   0   0   0   0   0   1   0.000   0.000   1.500 1 0 0 -1 0 0 0  23  5 -1 0 0 0 1 0 0
  25    0  -1   9   4   0   0   0   0   0   1   0.000   0.000   1.500 1 0 0 -1 0 0 0  23  2 -1 0 0 0 0 0 0
  26    0  10   9   5   0   0   0   0   0   1   0.000   0.000   1.500 1 0 0 -1 0 0 0  30  1 -1 0 0 0 1 0 0
  27    0  10   9   4   0   0   0   0   0   1   0.000   0.000   1.500 4 0 0 -1 0 0 0  23  1 -1 0 0 0 1 0 0
  28    0   9  -1   9   0   0   0   0   0   1   0.000   0.000   1.500 0 0 0 -1 0 0 0  29  5 -1 0 0 0 1 0 0
  29    8  15   8   0   0   0   1   0   0   1   0.000   0.000   0.000 1 0 0 0 1.70482 0 0 128  2 -1 0 0 0 1 0 0
  30    8  15   9   0   0   0   1   0   0   1   0.000   0.000   0.000 1 0 0 0 0.568272 0 0 128  2 -1 0 0 0 1 0 0
  31    0  11   9   4   0   0   0   0   0   1   0.000   0.000   1.500 1 0 0 -1 0 0 0  23  1 -1 0 0 0 1 0 0
  32    0  11   8   4   0   0   0   0   0   1   0.000   0.000   1.500 1 0 0 -1 0 0 0  23  1 -1 0 0 0 1 0 0
  33    8  15  11   0   0   0   1   0   0   1   0.000   0.000   0.000 1 0 0 0 0.142068 0 0 128  2 -1 0 0 0 1 0 0
  34    0  13  11   4   0   0   0   0   0   1   0.000   0.000   1.500 1 0 0 -1 0 0 0  23  1 -1 0 0 0 1 0 0
  35    0  12  11   4   0   0   0   0   0   1   0.000   0.000   1.500 1 0 0 -1 0 0 0  23  1 -1 0 0 0 1 0 0
  36    8  15  12   0   0   0   1   0   0   1   0.000   0.000   0.000 1 0 0 0 1.70482 0 0 128  2 -1 0 0 0 1 0 0
  37    8  15  13   0   0   0   1   0   0   1   0.000   0.000   0.000 1 0 0 0 1.70482 0 0 128  2 -1 0 0 0 1 0 0
  38    0  -1  13   4   0   0   0   0   0   1   0.000   0.000   1.500 1 0 0 -1 0 0 0  23  2 -1 0 0 0 1 0 0
  39    0  -1  12   4   0   0   0   0   0   1   0.000   0.000   1.500 1 0 0 -1 0 0 0  23  5 -1 0 0 0 1 0 0
  40   16  14  15   0   1   0   0   1   0   1   0.000   0.000   1.500 1 0 0 -1 0 0 0   0  6 -1 0 0 0 1 0 0
  41   32  -1  15   0   2   0   0   0   0   1   0.000   0.000   1.500 1 0 0 -1 0 0 0   0  6 -1 0 0 0 1 0 0
  42   64  14  -1   0   0   0   0   0   0   1   0.000   0.000   1.500 1 0 0 -1 0 0 0   0  6 -1 0 0 0 1 0 0
-999
0 ! duct junctions:
-999
0 ! initial junction concentrations:
-999
0 ! duct segments:
-999
19 ! source/sinks:
! #  z#  e#  s#  c#  mult   CC0  (X, Y, H)min  (X, Y, H)max u[1] cdvf <cdvf name> cfd <cfd name>
  1   9  18   5   0    19     0  0 0 0  0 0 0 -1 0 0 0
  2  10  18   5   0     1     0  0 0 0  0 0 0 -1 0 0 0
  3  10   1   5   0     1     0  0 0 0  0 0 0 -1 0 0 0
  4  10   2   5   0     1     0  0 0 0  0 0 0 -1 0 0 0
  5  10   3   5   0     1     0  0 0 0  0 0 0 -1 0 0 0
  6  10   4   5   0     1     0  0 0 0  0 0 0 -1 0 0 0
  7  10   5   5   0     1     0  0 0 0  0 0 0 -1 0 0 0
  8  10   6   5   0     1     0  0 0 0  0 0 0 -1 0 0 0
  9  10   7   5   0     1     0  0 0 0  0 0 0 -1 0 0 0
 10  10   8   5   0     1     0  0 0 0  0 0 0 -1 0 0 0
 11  10   9   5   0     1     0  0 0 0  0 0 0 -1 0 0 0
 12  10  10   5   0     1     0  0 0 0  0 0 0 -1 0 0 0
 13  10  11   5   0     1     0  0 0 0  0 0 0 -1 0 0 0
 14  10  12   5   0     1     0  0 0 0  0 0 0 -1 0 0 0
 15  10  13   5   0     1     0  0 0 0  0 0 0 -1 0 0 0
 16  10  14   5   0     1     0  0 0 0  0 0 0 -1 0 0 0
 17  10  15   5   0     1     0  0 0 0  0 0 0 -1 0 0 0
 18  10  16   5   0     1     0  0 0 0  0 0 0 -1 0 0 0
 19  10  17   5   0     1     0  0 0 0  0 0 0 -1 0 0 0
-999
0 ! occupancy schedules:
-999
0 ! exposures:
-999
0 ! annotations:
-999
* end project file.
